Class Notes
…
The objectives are to explain a column type that can hold complex data by using the map and nest functions. Since statistical model output is a complex list, we will use this column to store that kind of output, and we will send this to ggplot to make a nice plot of how the within-continent Preston relationship has changed over time.

# this is a helper function.
fit_ols <- function(df){
    lm(lifeExp ~ log(gdpPercap), data = df)
}

out_le <- gapminder %>%
    group_by(continent, year) %>%
    nest() %>%
    mutate(model = map(data, fit_ols))

out_le

## # A tibble: 60 x 4
##    continent  year data              model   
##    <fct>     <int> <list>            <list>  
##  1 Asia       1952 <tibble [33  4]> <S3: lm>
##  2 Asia       1957 <tibble [33  4]> <S3: lm>
##  3 Asia       1962 <tibble [33  4]> <S3: lm>
##  4 Asia       1967 <tibble [33  4]> <S3: lm>
##  5 Asia       1972 <tibble [33  4]> <S3: lm>
##  6 Asia       1977 <tibble [33  4]> <S3: lm>
##  7 Asia       1982 <tibble [33  4]> <S3: lm>
##  8 Asia       1987 <tibble [33  4]> <S3: lm>
##  9 Asia       1992 <tibble [33  4]> <S3: lm>
## 10 Asia       1997 <tibble [33  4]> <S3: lm>
## #  with 50 more rows
…
